%YAML 1.1
%TAG !u! tag:unity3d.com,2011:
--- !u!1045 &1
EditorBuildSettings:
  m_ObjectHideFlags: 0
  serializedVersion: 2
  m_Scenes:
  - enabled: 1
    path: Assets/Scenes/MenuScene.unity
    guid: 00c74f957987a4faa8387662b7aeaaea
  - enabled: 1
    path: Assets/Scenes/GameScene.unity
    guid: d4c495da8aa744c5ba216ba3e3f1ea32
  - enabled: 1
    path: Assets/Scenes/Matchmaking.unity
    guid: 260c8a00dd2154e028e37649d05cb2c7
  m_configObjects: {}
